…
For line listing data `vzv_parvo_be` , use
[`generate_quad_matrix()`](https://oucru-modelling.github.io/serosv/reference/generate_quad_matrix.md)
function to create the (NN, NP, PN, PP) for fitting the model

``` r
generate_quad_matrix(vzv_parvo_be, vzv_res, parvo_res, age, discrete_age = F)
#> # A tibble: 1,751 × 6
#>       age    NN    NP    PN    PP total
#>     <dbl> <int> <int> <int> <int> <int>
#>  1 0.0329     0     0     1     0     1
#>  2 0.0521     1     0     0     0     1
#>  3 0.266      0     0     1     0     1
#>  4 0.403      1     0     0     0     1
#>  5 0.493      0     0     0     1     1
#>  6 0.663      1     0     0     0     1
#>  7 0.811      1     0     0     0     1
#>  8 1.05       0     0     0     1     1
#>  9 1.07       1     0     1     0     2
#> 10 1.10       0     0     1     0     1
#> # ℹ 1,741 more rows
```
